Data Visualization
…
Show an interactive map

restoration_sites <- delta_visits %>% 
    clean_names() %>% 
    distinct(restore_loc = eco_restore_approximate_location, 
           latitude, longitude) %>%
           drop_na(latitude, longitude)
        restoration_sites

# A tibble: 31 × 3
   restore_loc     latitude longitude
   <chr>              <dbl>     <dbl>
 1 Decker Island       38.1     -122.
 2 Decker Island       38.1     -122.
 3 SW Suisun Marsh     38.2     -122.
 4 SW Suisun Marsh     38.1     -122.
 5 Grizzly Bay         38.1     -122.
 6 Grizzly Bay         38.1     -122.
 7 Grizzly Bay         38.0     -122.
 8 Grizzly Bay         38.1     -122.
 9 Grizzly Bay         38.0     -122.
10 Grizzly Bay         38.0     -122.
# ℹ 21 more rows
…
